Charge name,Cash paying rate,Insurance rate
Chicken Tikka (Leg),350,
Chicken Tikka (Breast),400,
Chicken Lemon (Leg),350,
Chicken Lemon (Breast),400,
Gajar Chicken (Leg),350,
Gajar Chicken (Breast),400,
Boneless Chicken (4pcs  plate),400,
Beef Mishikaki (5pcs plate),300,
Sheesh Kebab (3pcs plate),300,
Grilled Beef Fillet,800,
Mixed Grill,1350,
Slice Grilled King Fish,600,
Whole Grill Fish,600,
Garlic Butter Pan-Fried Pawns,800,
Garlic Pan Fried Calamaky,800,
Mixed Seas Frop Platter,2500,